Solution Using the tidyverse
…
Calculate the relative number (%) of individuals within each group and the ratio between the minimum culmen length and depth as well as between the maximum culmen length and depth. Add a sex_new column again (culmen_class 1 = "male", culmen_class 2 = "female", culmen_class 0 = "mixed). Save the result as penguings_sum.

penguings_sum <- dplyr::group_by(penguins_small, culmen_class) %>% 
  dplyr::summarise(n_rel = dplyr::n() / nrow(penguins_small) * 100, 
                   ratio_min = min(culmen_length) / min(culmen_depth), 
                   ratio_max = max(culmen_length) / max(culmen_depth)) %>% 
  dplyr::mutate(sex_new = dplyr::case_when(culmen_class == 0 ~ "mixed", 
                                           culmen_class == 1 ~ "male", 
                                           culmen_class == 2 ~ "female"))

Now, combine penguins and penguins_sum to one tibble using sex and sex_new as ID columns.

dplyr::left_join(penguins, penguings_sum, by = c("sex" = "sex_new"))
## # A tibble: 344 × 12
##    species island    bill_le…¹ bill_…² flipp…³ body_…⁴ sex    year culme…⁵ n_rel
##    <fct>   <fct>         <dbl>   <dbl>   <int>   <int> <chr> <int>   <dbl> <dbl>
##  1 Adelie  Torgersen      39.1    18.7     181    3750 male   2007       1  9.64
##  2 Adelie  Torgersen      39.5    17.4     186    3800 fema…  2007       2 16.3 
##  3 Adelie  Torgersen      40.3    18       195    3250 fema…  2007       2 16.3 
##  4 Adelie  Torgersen      NA      NA        NA      NA <NA>   2007      NA NA   
##  5 Adelie  Torgersen      36.7    19.3     193    3450 fema…  2007       2 16.3 
##  6 Adelie  Torgersen      39.3    20.6     190    3650 male   2007       1  9.64
##  7 Adelie  Torgersen      38.9    17.8     181    3625 fema…  2007       2 16.3 
##  8 Adelie  Torgersen      39.2    19.6     195    4675 male   2007       1  9.64
##  9 Adelie  Torgersen      34.1    18.1     193    3475 <NA>   2007      NA NA   
## 10 Adelie  Torgersen      42      20.2     190    4250 <NA>   2007      NA NA   
## # … with 334 more rows, 2 more variables: ratio_min <dbl>, ratio_max <dbl>, and
## #   abbreviated variable names ¹​bill_length_mm, ²​bill_depth_mm,
## #   ³​flipper_length_mm, ⁴​body_mass_g, ⁵​culmen_class
dplyr::right_join(penguins, penguings_sum, by = c("sex" = "sex_new"))
## # A tibble: 334 × 12
##    species island    bill_le…¹ bill_…² flipp…³ body_…⁴ sex    year culme…⁵ n_rel
##    <fct>   <fct>         <dbl>   <dbl>   <int>   <int> <chr> <int>   <dbl> <dbl>
##  1 Adelie  Torgersen      39.1    18.7     181    3750 male   2007       1  9.64
##  2 Adelie  Torgersen      39.5    17.4     186    3800 fema…  2007       2 16.3 
##  3 Adelie  Torgersen      40.3    18       195    3250 fema…  2007       2 16.3 
##  4 Adelie  Torgersen      36.7    19.3     193    3450 fema…  2007       2 16.3 
##  5 Adelie  Torgersen      39.3    20.6     190    3650 male   2007       1  9.64
##  6 Adelie  Torgersen      38.9    17.8     181    3625 fema…  2007       2 16.3 
##  7 Adelie  Torgersen      39.2    19.6     195    4675 male   2007       1  9.64
##  8 Adelie  Torgersen      41.1    17.6     182    3200 fema…  2007       2 16.3 
##  9 Adelie  Torgersen      38.6    21.2     191    3800 male   2007       1  9.64
## 10 Adelie  Torgersen      34.6    21.1     198    4400 male   2007       1  9.64
## # … with 324 more rows, 2 more variables: ratio_min <dbl>, ratio_max <dbl>, and
## #   abbreviated variable names ¹​bill_length_mm, ²​bill_depth_mm,
## #   ³​flipper_length_mm, ⁴​body_mass_g, ⁵​culmen_class
…
